{
  "@context": "https://schema.org/",
  "@type": "Product",
  "name": "Raspberry Pi 4 (4 Gb)",
  "image": "/shop/raspberrypi-4-4gb.png",
  "description": "Sleeker than ACME's Classic Anvil, the Executive Anvil is perfect for the business traveler looking for something to drop from a height.",
  "brand": {
    "@type": "Organization",
    "name": "Raspberry Pi Foundation"
  },
  "aggregateRating": {
    "@type": "AggregateRating",
    "ratingValue": "4.4",
    "reviewCount": "89"
  },
  "offers": {
    "@type": "Offer",
    "priceCurrency": "USD",
    "price": "75",
    "priceValidUntil": "2021-12-31",
    "itemCondition": "http://schema.org/NewCondition",
    "availability": "http://schema.org/InStock",
    "seller": {
      "@type": "Organization",
      "name": "Element14"
    }
  }
}
